[
  {
    "line": 1,
    "elements": [
      {
        "line": 3,
        "name": "User ingin melihat apakah produk yang telah di tawar ada di page pesanan saya",
        "description": "",
        "id": "my-order;user-ingin-melihat-apakah-produk-yang-telah-di-tawar-ada-di-page-pesanan-saya",
        "type": "scenario",
        "keyword": "Scenario",
        "steps": [
          {
            "result": {
              "duration": 3343407700,
              "status": "passed"
            },
            "line": 5,
            "name": "User klik button Akun",
            "match": {
              "location": "Registration.user_klik_button_Akun()"
            },
            "keyword": "When "
          },
          {
            "result": {
              "duration": 1193153800,
              "status": "passed"
            },
            "line": 6,
            "name": "klik Pesanan Saya",
            "match": {
              "location": "MyOrder.klik_Pesanan_Saya()"
            },
            "keyword": "And "
          },
          {
            "result": {
              "duration": 1643587400,
              "status": "passed"
            },
            "line": 7,
            "name": "Verify page pesanan saya",
            "match": {
              "location": "MyOrder.verify_page_pesanan_saya()"
            },
            "keyword": "And "
          }
        ]
      }
    ],
    "name": "My Order",
    "description": "",
    "id": "my-order",
    "keyword": "Feature",
    "uri": "C:/Users/nandi/Katalon Studio/platinum-challenge-kelompok-3-final/Secondhand-App/Include/features/MyOrder.feature",
    "tags": []
  }
]