[
  {
    "line": 1,
    "elements": [
      {
        "BDD_TESTRUN_UUID": "1e02c451-0830-40c0-9764-c22510049a55",
        "line": 4,
        "name": "User melakukan tambah produk dengan mengisi semua input field yang dibutuhkan dengan valid",
        "description": "",
        "id": "sellproduct;user-melakukan-tambah-produk-dengan-mengisi-semua-input-field-yang-dibutuhkan-dengan-valid",
        "type": "scenario",
        "keyword": "Scenario",
        "steps": [
          {
            "result": {
              "duration": 599506700,
              "status": "passed"
            },
            "line": 5,
            "name": "User klik button + Jual",
            "match": {
              "location": "SellProduct.user_klik_button_Jual()"
            },
            "keyword": "When ",
            "BDD_STEP_UUID": "c9b9b698-84e8-46a0-894d-c0f1b49945dd"
          },
          {
            "result": {
              "duration": 1192538700,
              "status": "passed"
            },
            "line": 6,
            "name": "User mengisi field nama produk dengan \"Patung Motor\"",
            "match": {
              "arguments": [
                {
                  "val": "\"Patung Motor\"",
                  "offset": 38
                }
              ],
              "location": "SellProduct.user_mengisi_field_nama_produk_dengan(String)"
            },
            "keyword": "Then ",
            "BDD_STEP_UUID": "fef2c1c6-a276-4a34-b645-d9553729c197"
          },
          {
            "result": {
              "duration": 1005594400,
              "status": "passed"
            },
            "line": 7,
            "name": "User mengisi field harga produk dengan \"15000\"",
            "match": {
              "arguments": [
                {
                  "val": "\"15000\"",
                  "offset": 39
                }
              ],
              "location": "SellProduct.user_mengisi_field_harga_produk_dengan(String)"
            },
            "keyword": "Then ",
            "BDD_STEP_UUID": "2296ad8c-5f29-499c-aedd-b74dfbd9daa9"
          },
          {
            "result": {
              "duration": 1728770400,
              "status": "passed"
            },
            "line": 8,
            "name": "User memilih kategori Hoby",
            "match": {
              "location": "SellProduct.user_memilih_kategori_Hoby()"
            },
            "keyword": "Then ",
            "BDD_STEP_UUID": "81677f8b-ec9b-4616-9711-a99303af0d94"
          },
          {
            "result": {
              "duration": 1053868200,
              "status": "passed"
            },
            "line": 9,
            "name": "User mengisi field deskripsi",
            "match": {
              "location": "SellProduct.user_mengisi_field_deskripsi()"
            },
            "keyword": "Then ",
            "BDD_STEP_UUID": "a7013582-3f68-4014-a428-4040fd54b1a4"
          },
          {
            "result": {
              "duration": 666813500,
              "status": "passed"
            },
            "line": 10,
            "name": "User klik button Terbitkan",
            "match": {
              "location": "SellProduct.user_klik_button_Terbitkan()"
            },
            "keyword": "Then ",
            "BDD_STEP_UUID": "6e65cd03-b11c-494f-830b-2bb9e4f5be3c"
          },
          {
            "result": {
              "duration": 1493528300,
              "status": "passed"
            },
            "line": 11,
            "name": "klik tombol list",
            "match": {
              "location": "EditProduk.klik_tombol_list()"
            },
            "keyword": "When ",
            "BDD_STEP_UUID": "d29f1943-bd44-4afd-940e-0692c4b81e9b"
          },
          {
            "result": {
              "duration": 2093312600,
              "status": "passed"
            },
            "line": 12,
            "name": "User screenshot layar",
            "match": {
              "location": "Registration.user_screenshot_layar()"
            },
            "keyword": "Then ",
            "BDD_STEP_UUID": "b2d559b2-baf9-448a-bb41-127835fbf960"
          }
        ]
      }
    ],
    "name": "SellProduct",
    "description": "\tSebagai User, saya ingin menambah produk jualan saya pada web Second Hand Store",
    "id": "sellproduct",
    "keyword": "Feature",
    "uri": "C:/Users/nandi/Katalon Studio/PlatinumChallenge_Kelompok3/Secondhand-Web/Include/features/SellProduct.feature",
    "tags": []
  }
]