Suite/Test/Step Name,Browser,Description,Tag,Start time,End time,Duration,Status
TS - Registration,Chrome 108.0.0.0,,,2022-12-26 12:50:49,2022-12-26 12:51:45,55.905s,PASSED
,,,,,,,
Test Cases/Cucumber/Registration/TS.REG.01 - Positive Negative,Chrome 108.0.0.0,,,2022-12-26 12:51:00,2022-12-26 12:51:45,45.016s,PASSED
"runFeatureFile(""Include/features/Registration.feature"")",Chrome 108.0.0.0,,,2022-12-26 12:51:01,2022-12-26 12:51:45,43.792s,PASSED
