[
  {
    "line": 1,
    "elements": [
      {
        "BDD_TESTRUN_UUID": "cc4844aa-de08-4575-85fb-f3efafee2c1b",
        "line": 3,
        "name": "User melakukan login akun dengan menggunakan email dan password yang valid",
        "description": "",
        "id": "login;user-melakukan-login-akun-dengan-menggunakan-email-dan-password-yang-valid",
        "type": "scenario",
        "keyword": "Scenario",
        "steps": [
          {
            "result": {
              "duration": 868149900,
              "status": "passed"
            },
            "line": 4,
            "name": "User klik button Masuk",
            "match": {
              "location": "Registration.user_klik_button_Masuk()"
            },
            "keyword": "When ",
            "BDD_STEP_UUID": "0ddd82be-c45e-45f0-8424-ee6bbf80f63e"
          },
          {
            "result": {
              "duration": 1017716900,
              "status": "passed"
            },
            "line": 5,
            "name": "User mengisi field email login dengan valid",
            "match": {
              "location": "Login.user_mengisi_field_email_login_dengan_valid()"
            },
            "keyword": "When ",
            "BDD_STEP_UUID": "2e527e44-efd5-4944-b60a-7f4efb65d2ed"
          },
          {
            "result": {
              "duration": 1070408300,
              "status": "passed"
            },
            "line": 6,
            "name": "User mengisi field password login \"123456789\"",
            "match": {
              "arguments": [
                {
                  "val": "\"123456789\"",
                  "offset": 34
                }
              ],
              "location": "Login.user_mengisi_field_password_login(String)"
            },
            "keyword": "Then ",
            "BDD_STEP_UUID": "c433e729-ea18-42f0-bb98-b4312bc5bdda"
          },
          {
            "result": {
              "duration": 526575800,
              "status": "passed"
            },
            "line": 7,
            "name": "User klik tombol masuk",
            "match": {
              "location": "Login.user_klik_tombol_masuk()"
            },
            "keyword": "Then ",
            "BDD_STEP_UUID": "892ffcff-7b70-4bb8-aacd-8cc96d5a59d7"
          },
          {
            "result": {
              "duration": 3070547200,
              "status": "passed"
            },
            "line": 8,
            "name": "Delay 3 detik",
            "match": {
              "arguments": [
                {
                  "val": "3",
                  "offset": 6
                }
              ],
              "location": "Registration.delay_detik(Integer)"
            },
            "keyword": "Given ",
            "BDD_STEP_UUID": "a10ee725-dd73-480b-a137-41736cd50c9f"
          },
          {
            "result": {
              "duration": 746311700,
              "status": "passed"
            },
            "line": 9,
            "name": "User screenshot layar",
            "match": {
              "location": "Registration.user_screenshot_layar()"
            },
            "keyword": "Then ",
            "BDD_STEP_UUID": "f0b83c8a-270b-4deb-97b2-fa0e20f5e370"
          }
        ]
      }
    ],
    "name": "Login",
    "description": "",
    "id": "login",
    "keyword": "Feature",
    "uri": "C:/Users/nandi/Katalon Studio/PlatinumChallenge_Kelompok3/Secondhand-Web/Include/features/Valid/Login-PositiveOnly.feature",
    "tags": []
  }
]