[
  {
    "line": 1,
    "elements": [
      {
        "BDD_TESTRUN_UUID": "1e77967d-9e53-4e9a-8398-fee7bf47a443",
        "line": 3,
        "name": "User melakukan login akun dengan menggunakan email dan password yang valid",
        "description": "",
        "id": "login;user-melakukan-login-akun-dengan-menggunakan-email-dan-password-yang-valid",
        "type": "scenario",
        "keyword": "Scenario",
        "steps": [
          {
            "result": {
              "duration": 959657400,
              "status": "passed"
            },
            "line": 4,
            "name": "User klik button Masuk",
            "match": {
              "location": "Registration.user_klik_button_Masuk()"
            },
            "keyword": "When ",
            "BDD_STEP_UUID": "16f70996-cc34-4fc8-9a81-59218458c655"
          },
          {
            "result": {
              "duration": 1580501900,
              "status": "passed"
            },
            "line": 5,
            "name": "User mengisi field email login dengan akun buyer",
            "match": {
              "location": "Login.user_mengisi_field_email_login_dengan_akun_buyer()"
            },
            "keyword": "When ",
            "BDD_STEP_UUID": "657b7b23-6c32-4058-9578-ae8d63f20d3a"
          },
          {
            "result": {
              "duration": 1241416100,
              "status": "passed"
            },
            "line": 6,
            "name": "User mengisi field password login \"123456789\"",
            "match": {
              "arguments": [
                {
                  "val": "\"123456789\"",
                  "offset": 34
                }
              ],
              "location": "Login.user_mengisi_field_password_login(String)"
            },
            "keyword": "Then ",
            "BDD_STEP_UUID": "7e6e9aee-605d-4419-ae51-a0599c289bad"
          },
          {
            "result": {
              "duration": 604055000,
              "status": "passed"
            },
            "line": 7,
            "name": "User klik tombol masuk",
            "match": {
              "location": "Login.user_klik_tombol_masuk()"
            },
            "keyword": "Then ",
            "BDD_STEP_UUID": "174a1862-6e6d-437b-b0f1-c8e2b025cf4b"
          },
          {
            "result": {
              "duration": 3098435800,
              "status": "passed"
            },
            "line": 8,
            "name": "Delay 3 detik",
            "match": {
              "arguments": [
                {
                  "val": "3",
                  "offset": 6
                }
              ],
              "location": "Registration.delay_detik(Integer)"
            },
            "keyword": "Given ",
            "BDD_STEP_UUID": "a6e230cf-1a4d-436c-b580-2b0e2a43792f"
          },
          {
            "result": {
              "duration": 2688933100,
              "status": "passed"
            },
            "line": 9,
            "name": "User screenshot layar",
            "match": {
              "location": "Registration.user_screenshot_layar()"
            },
            "keyword": "Then ",
            "BDD_STEP_UUID": "52db5551-ed6f-4375-ba48-1b61587c3be3"
          }
        ]
      }
    ],
    "name": "Login",
    "description": "",
    "id": "login",
    "keyword": "Feature",
    "uri": "C:/Users/nandi/Katalon Studio/PlatinumChallenge_Kelompok3/Secondhand-Web/Include/features/Valid/Login-BuyerPositiveOnly.feature",
    "tags": []
  }
]