Suite/Test/Step Name,Browser,Description,Tag,Start time,End time,Duration,Status
TS - Login-Edit Profile,Chrome 108.0.0.0,,,2022-12-26 13:15:42,2022-12-26 13:16:28,45.641s,PASSED
,,,,,,,
Test Cases/Cucumber/Login/TC.LOG.02.01,Chrome 108.0.0.0,,,2022-12-26 13:15:53,2022-12-26 13:16:04,11.094s,PASSED
"runFeatureFile(""Include/features/Valid/Login-PositiveOnly.feature"")",Chrome 108.0.0.0,,,2022-12-26 13:15:54,2022-12-26 13:16:04,10.171s,PASSED
,,,,,,,
Test Cases/Cucumber/Profile/TS.EPF.03 - Positive Negative,Chrome 108.0.0.0,,,2022-12-26 13:16:04,2022-12-26 13:16:28,24.045s,PASSED
"runFeatureFile(""Include/features/Profile.feature"")",Chrome 108.0.0.0,,,2022-12-26 13:16:05,2022-12-26 13:16:28,23.371s,PASSED
