[
  {
    "line": 1,
    "elements": [
      {
        "line": 4,
        "name": "User melakukan login akun tanpa mengisi semua input field yang dibutuhkan",
        "description": "",
        "id": "login;user-melakukan-login-akun-tanpa-mengisi-semua-input-field-yang-dibutuhkan",
        "type": "scenario",
        "keyword": "Scenario",
        "steps": [
          {
            "result": {
              "duration": 884430400,
              "status": "passed"
            },
            "line": 5,
            "name": "User klik button Masuk",
            "match": {
              "location": "Registration.user_klik_button_Masuk()"
            },
            "keyword": "When "
          },
          {
            "result": {
              "duration": 3094225500,
              "status": "passed"
            },
            "line": 6,
            "name": "Delay 3 detik",
            "match": {
              "arguments": [
                {
                  "val": "3",
                  "offset": 6
                }
              ],
              "location": "Registration.delay_detik(Integer)"
            },
            "keyword": "Given "
          },
          {
            "result": {
              "duration": 665989500,
              "status": "passed"
            },
            "line": 7,
            "name": "User klik tombol masuk",
            "match": {
              "location": "Login.user_klik_tombol_masuk()"
            },
            "keyword": "Then "
          },
          {
            "result": {
              "duration": 3022679100,
              "status": "passed"
            },
            "line": 8,
            "name": "Delay 3 detik",
            "match": {
              "arguments": [
                {
                  "val": "3",
                  "offset": 6
                }
              ],
              "location": "Registration.delay_detik(Integer)"
            },
            "keyword": "Given "
          },
          {
            "result": {
              "duration": 1732571800,
              "status": "passed"
            },
            "line": 9,
            "name": "User screenshot layar",
            "match": {
              "location": "Registration.user_screenshot_layar()"
            },
            "keyword": "Then "
          }
        ]
      },
      {
        "line": 11,
        "name": "User melakukan login akun tanpa mengisi input field password",
        "description": "",
        "id": "login;user-melakukan-login-akun-tanpa-mengisi-input-field-password",
        "type": "scenario",
        "keyword": "Scenario",
        "steps": [
          {
            "result": {
              "duration": 1439179300,
              "status": "passed"
            },
            "line": 12,
            "name": "User mengisi field email login dengan valid",
            "match": {
              "location": "Login.user_mengisi_field_email_login_dengan_valid()"
            },
            "keyword": "When "
          },
          {
            "result": {
              "duration": 616336900,
              "status": "passed"
            },
            "line": 13,
            "name": "User klik tombol masuk",
            "match": {
              "location": "Login.user_klik_tombol_masuk()"
            },
            "keyword": "Then "
          },
          {
            "result": {
              "duration": 3011824600,
              "status": "passed"
            },
            "line": 14,
            "name": "Delay 3 detik",
            "match": {
              "arguments": [
                {
                  "val": "3",
                  "offset": 6
                }
              ],
              "location": "Registration.delay_detik(Integer)"
            },
            "keyword": "Given "
          },
          {
            "result": {
              "duration": 1569531300,
              "status": "passed"
            },
            "line": 15,
            "name": "User screenshot layar",
            "match": {
              "location": "Registration.user_screenshot_layar()"
            },
            "keyword": "Then "
          }
        ]
      },
      {
        "line": 17,
        "name": "User melakukan login akun menggunakan email yang tidak terdaftar/salah",
        "description": "",
        "id": "login;user-melakukan-login-akun-menggunakan-email-yang-tidak-terdaftar/salah",
        "type": "scenario",
        "keyword": "Scenario",
        "steps": [
          {
            "result": {
              "duration": 845375900,
              "status": "passed"
            },
            "line": 18,
            "name": "Menghapus field password login",
            "match": {
              "location": "Login.menghapus_field_password_login()"
            },
            "keyword": "Given "
          },
          {
            "result": {
              "duration": 1180628200,
              "status": "passed"
            },
            "line": 19,
            "name": "User mengisi field email login yang salah",
            "match": {
              "location": "Login.user_mengisi_field_email_login_yang_salah()"
            },
            "keyword": "When "
          },
          {
            "result": {
              "duration": 1015842800,
              "status": "passed"
            },
            "line": 20,
            "name": "User mengisi field password login \"123456789\"",
            "match": {
              "arguments": [
                {
                  "val": "\"123456789\"",
                  "offset": 34
                }
              ],
              "location": "Login.user_mengisi_field_password_login(String)"
            },
            "keyword": "Then "
          },
          {
            "result": {
              "duration": 561962300,
              "status": "passed"
            },
            "line": 21,
            "name": "User klik tombol masuk",
            "match": {
              "location": "Login.user_klik_tombol_masuk()"
            },
            "keyword": "Then "
          },
          {
            "result": {
              "duration": 3017576700,
              "status": "passed"
            },
            "line": 22,
            "name": "Delay 3 detik",
            "match": {
              "arguments": [
                {
                  "val": "3",
                  "offset": 6
                }
              ],
              "location": "Registration.delay_detik(Integer)"
            },
            "keyword": "Given "
          },
          {
            "result": {
              "duration": 558759500,
              "status": "passed"
            },
            "line": 23,
            "name": "User mendapatkan error message",
            "match": {
              "location": "Login.user_mendapatkan_error_message()"
            },
            "keyword": "Then "
          },
          {
            "result": {
              "duration": 1385094300,
              "status": "passed"
            },
            "line": 24,
            "name": "User screenshot layar",
            "match": {
              "location": "Registration.user_screenshot_layar()"
            },
            "keyword": "Then "
          }
        ]
      },
      {
        "line": 26,
        "name": "User melakukan login akun menggunakan email yang belum diverifikasi/aktivasi",
        "description": "",
        "id": "login;user-melakukan-login-akun-menggunakan-email-yang-belum-diverifikasi/aktivasi",
        "type": "scenario",
        "keyword": "Scenario",
        "steps": [
          {
            "result": {
              "duration": 525786500,
              "status": "passed"
            },
            "line": 27,
            "name": "Menghapus field email login",
            "match": {
              "location": "Login.menghapus_field_email_login()"
            },
            "keyword": "Given "
          },
          {
            "result": {
              "duration": 647783100,
              "status": "passed"
            },
            "line": 28,
            "name": "Menghapus field password login",
            "match": {
              "location": "Login.menghapus_field_password_login()"
            },
            "keyword": "Given "
          },
          {
            "result": {
              "duration": 1218747100,
              "status": "passed"
            },
            "line": 29,
            "name": "User mengisi field email login yang belom di verifikasi",
            "match": {
              "location": "Login.user_mengisi_field_email_login_yang_belom_di_verifikasi()"
            },
            "keyword": "When "
          },
          {
            "result": {
              "duration": 978118100,
              "status": "passed"
            },
            "line": 30,
            "name": "User mengisi field password email yang belom di verif \"12345678\"",
            "match": {
              "arguments": [
                {
                  "val": "\"12345678\"",
                  "offset": 54
                }
              ],
              "location": "Login.user_mengisi_field_password_email_yang_belom_di_verif(String)"
            },
            "keyword": "Then "
          },
          {
            "result": {
              "duration": 709329800,
              "status": "passed"
            },
            "line": 31,
            "name": "User klik tombol masuk",
            "match": {
              "location": "Login.user_klik_tombol_masuk()"
            },
            "keyword": "Then "
          },
          {
            "result": {
              "duration": 3022683700,
              "status": "passed"
            },
            "line": 32,
            "name": "Delay 3 detik",
            "match": {
              "arguments": [
                {
                  "val": "3",
                  "offset": 6
                }
              ],
              "location": "Registration.delay_detik(Integer)"
            },
            "keyword": "Given "
          },
          {
            "result": {
              "duration": 635264600,
              "status": "passed"
            },
            "line": 33,
            "name": "User mendapatkan error message verif",
            "match": {
              "location": "Login.user_mendapatkan_error_message_verif()"
            },
            "keyword": "Then "
          },
          {
            "result": {
              "duration": 1498744100,
              "status": "passed"
            },
            "line": 34,
            "name": "User screenshot layar",
            "match": {
              "location": "Registration.user_screenshot_layar()"
            },
            "keyword": "Then "
          }
        ]
      },
      {
        "line": 36,
        "name": "User melakukan login akun dengan menggunakan email dan password yang valid",
        "description": "",
        "id": "login;user-melakukan-login-akun-dengan-menggunakan-email-dan-password-yang-valid",
        "type": "scenario",
        "keyword": "Scenario",
        "steps": [
          {
            "result": {
              "duration": 595802300,
              "status": "passed"
            },
            "line": 37,
            "name": "User menghapus field email login",
            "match": {
              "location": "Login.user_menghapus_field_email_login()"
            },
            "keyword": "Given "
          },
          {
            "result": {
              "duration": 570861000,
              "status": "passed"
            },
            "line": 38,
            "name": "User menghapus field password login",
            "match": {
              "location": "Login.user_menghapus_field_password_login()"
            },
            "keyword": "Given "
          },
          {
            "result": {
              "duration": 1293853300,
              "status": "passed"
            },
            "line": 39,
            "name": "User mengisi field email login dengan valid",
            "match": {
              "location": "Login.user_mengisi_field_email_login_dengan_valid()"
            },
            "keyword": "When "
          },
          {
            "result": {
              "duration": 1015404100,
              "status": "passed"
            },
            "line": 40,
            "name": "User mengisi field password login \"123456789\"",
            "match": {
              "arguments": [
                {
                  "val": "\"123456789\"",
                  "offset": 34
                }
              ],
              "location": "Login.user_mengisi_field_password_login(String)"
            },
            "keyword": "Then "
          },
          {
            "result": {
              "duration": 600087500,
              "status": "passed"
            },
            "line": 41,
            "name": "User klik tombol masuk",
            "match": {
              "location": "Login.user_klik_tombol_masuk()"
            },
            "keyword": "Then "
          },
          {
            "result": {
              "duration": 3013053000,
              "status": "passed"
            },
            "line": 42,
            "name": "Delay 3 detik",
            "match": {
              "arguments": [
                {
                  "val": "3",
                  "offset": 6
                }
              ],
              "location": "Registration.delay_detik(Integer)"
            },
            "keyword": "Given "
          },
          {
            "result": {
              "duration": 1446863300,
              "status": "passed"
            },
            "line": 43,
            "name": "User screenshot layar",
            "match": {
              "location": "Registration.user_screenshot_layar()"
            },
            "keyword": "Then "
          }
        ]
      }
    ],
    "name": "Login",
    "description": "\tUser ingin login pada website SecondHand",
    "id": "login",
    "keyword": "Feature",
    "uri": "C:/Users/nandi/Katalon Studio/PlatinumChallenge_Kelompok3/Secondhand-Web/Include/features/Login.feature",
    "tags": []
  }
]