[
  {
    "line": 1,
    "elements": [
      {
        "BDD_TESTRUN_UUID": "92b6bce9-0953-4d05-b42d-bdf28f660a29",
        "line": 3,
        "name": "User melakukan login akun dengan menggunakan email dan password yang valid",
        "description": "",
        "id": "login;user-melakukan-login-akun-dengan-menggunakan-email-dan-password-yang-valid",
        "type": "scenario",
        "keyword": "Scenario",
        "steps": [
          {
            "result": {
              "duration": 841712800,
              "status": "passed"
            },
            "line": 4,
            "name": "User klik button Masuk",
            "match": {
              "location": "Registration.user_klik_button_Masuk()"
            },
            "keyword": "When ",
            "BDD_STEP_UUID": "94a54319-e0b3-4daa-9a78-f69b5343a5c4"
          },
          {
            "result": {
              "duration": 1140291900,
              "status": "passed"
            },
            "line": 5,
            "name": "User mengisi field email login dengan valid",
            "match": {
              "location": "Login.user_mengisi_field_email_login_dengan_valid()"
            },
            "keyword": "When ",
            "BDD_STEP_UUID": "c9031bf1-fe69-49bd-9474-a4272681fcdf"
          },
          {
            "result": {
              "duration": 945921400,
              "status": "passed"
            },
            "line": 6,
            "name": "User mengisi field password login \"123456789\"",
            "match": {
              "arguments": [
                {
                  "val": "\"123456789\"",
                  "offset": 34
                }
              ],
              "location": "Login.user_mengisi_field_password_login(String)"
            },
            "keyword": "Then ",
            "BDD_STEP_UUID": "011100e4-f5ae-4096-98e7-9cbd24c4bdab"
          },
          {
            "result": {
              "duration": 611809700,
              "status": "passed"
            },
            "line": 7,
            "name": "User klik tombol masuk",
            "match": {
              "location": "Login.user_klik_tombol_masuk()"
            },
            "keyword": "Then ",
            "BDD_STEP_UUID": "441567d0-cadf-4c8d-947f-d0b074e44916"
          },
          {
            "result": {
              "duration": 3112876500,
              "status": "passed"
            },
            "line": 8,
            "name": "Delay 3 detik",
            "match": {
              "arguments": [
                {
                  "val": "3",
                  "offset": 6
                }
              ],
              "location": "Registration.delay_detik(Integer)"
            },
            "keyword": "Given ",
            "BDD_STEP_UUID": "168f600e-4826-4978-a6e6-3ac9c5c09610"
          },
          {
            "result": {
              "duration": 1796722300,
              "status": "passed"
            },
            "line": 9,
            "name": "User screenshot layar",
            "match": {
              "location": "Registration.user_screenshot_layar()"
            },
            "keyword": "Then ",
            "BDD_STEP_UUID": "cd1599a3-a868-47f0-b281-8bd7ac743c15"
          }
        ]
      }
    ],
    "name": "Login",
    "description": "",
    "id": "login",
    "keyword": "Feature",
    "uri": "C:/Users/nandi/Katalon Studio/PlatinumChallenge_Kelompok3/Secondhand-Web/Include/features/Valid/Login-PositiveOnly.feature",
    "tags": []
  }
]