Suite/Test/Step Name,Browser,Description,Tag,Start time,End time,Duration,Status
TS - Login-Category,,,,2022-12-26 18:01:21,2022-12-26 18:02:49,1m - 28.081s,PASSED
,,,,,,,
Test Cases/Cucumber/TS.CAT.08 - Category,,,,2022-12-26 18:01:40,2022-12-26 18:02:49,1m - 9.925s,PASSED
"runFeatureFile(""Include/features/Category.feature"")",,,,2022-12-26 18:01:41,2022-12-26 18:02:49,1m - 8.781s,PASSED
