[
  {
    "line": 1,
    "elements": [
      {
        "BDD_TESTRUN_UUID": "f8720778-813d-4bbe-a5fb-170f655ff08a",
        "line": 3,
        "name": "User melakukan edit produk dengan mengosongkan beberapa field",
        "description": "",
        "id": "edit-product;user-melakukan-edit-produk-dengan-mengosongkan-beberapa-field",
        "type": "scenario",
        "keyword": "Scenario",
        "steps": [
          {
            "result": {
              "duration": 2088519800,
              "status": "passed"
            },
            "line": 4,
            "name": "User klik button Akun",
            "match": {
              "location": "Registration.user_klik_button_Akun()"
            },
            "keyword": "When ",
            "BDD_STEP_UUID": "d7089088-b5b1-4bdb-94d4-f23cf96cb128"
          },
          {
            "result": {
              "duration": 938100200,
              "status": "passed"
            },
            "line": 5,
            "name": "User klik menu Daftar Jual Saya",
            "match": {
              "location": "EditProduct.user_klik_menu_Daftar_Jual_Saya()"
            },
            "keyword": "Then ",
            "BDD_STEP_UUID": "5a60d75d-e6b0-46b5-8f95-b3f056dca8ed"
          },
          {
            "result": {
              "duration": 3085437600,
              "status": "passed"
            },
            "line": 6,
            "name": "Delay 3 detik",
            "match": {
              "arguments": [
                {
                  "val": "3",
                  "offset": 6
                }
              ],
              "location": "Registration.delay_detik(Integer)"
            },
            "keyword": "Given ",
            "BDD_STEP_UUID": "acbb8e2d-0cc0-4e1a-b6f2-f075ba4f50f2"
          },
          {
            "result": {
              "duration": 7775169900,
              "status": "passed"
            },
            "line": 7,
            "name": "User klik salah satu produk",
            "match": {
              "location": "EditProduct.user_klik_salah_satu_produk()"
            },
            "keyword": "Then ",
            "BDD_STEP_UUID": "6cdabff6-395d-4327-84b1-5868d884dde2"
          },
          {
            "result": {
              "duration": 347415700,
              "status": "passed"
            },
            "line": 8,
            "name": "User mengosongkan field nama produk",
            "match": {
              "location": "EditProduct.user_mengosongkan_field_nama_produk()"
            },
            "keyword": "Then ",
            "BDD_STEP_UUID": "55cfb9e2-2d78-48c5-aada-099180e7017e"
          },
          {
            "result": {
              "duration": 3005036000,
              "status": "passed"
            },
            "line": 9,
            "name": "Delay 3 detik",
            "match": {
              "arguments": [
                {
                  "val": "3",
                  "offset": 6
                }
              ],
              "location": "Registration.delay_detik(Integer)"
            },
            "keyword": "Given ",
            "BDD_STEP_UUID": "2ab1055d-58d7-4e98-8427-ecc920aca749"
          },
          {
            "result": {
              "duration": 462893900,
              "status": "passed"
            },
            "line": 10,
            "name": "User mendapatkan alert bahwa field nama produk tidak boleh kosong",
            "match": {
              "location": "EditProduct.user_mendapatkan_alert_bahwa_field_nama_produk_tidak_boleh_kosong()"
            },
            "keyword": "Then ",
            "BDD_STEP_UUID": "c80b58a8-904b-403c-835f-4c87e33d43df"
          },
          {
            "result": {
              "duration": 457763100,
              "status": "passed"
            },
            "line": 11,
            "name": "User mengosongkan field harga produk",
            "match": {
              "location": "EditProduct.user_mengosongkan_field_harga_produk()"
            },
            "keyword": "Then ",
            "BDD_STEP_UUID": "397a2d49-83c1-402b-8a46-02961e252116"
          },
          {
            "result": {
              "duration": 3009468200,
              "status": "passed"
            },
            "line": 12,
            "name": "Delay 3 detik",
            "match": {
              "arguments": [
                {
                  "val": "3",
                  "offset": 6
                }
              ],
              "location": "Registration.delay_detik(Integer)"
            },
            "keyword": "Given ",
            "BDD_STEP_UUID": "80ac4759-b41f-4a80-97b7-c2517af2976a"
          },
          {
            "result": {
              "duration": 359432900,
              "status": "passed"
            },
            "line": 13,
            "name": "User mendapatkan alert bahwa field harga produk tidak boleh kosong",
            "match": {
              "location": "EditProduct.user_mendapatkan_alert_bahwa_field_harga_produk_tidak_boleh_kosong()"
            },
            "keyword": "Then ",
            "BDD_STEP_UUID": "ffdd6427-374e-4fc3-8d9a-8f96ceb6e11b"
          },
          {
            "result": {
              "duration": 377098900,
              "status": "passed"
            },
            "line": 14,
            "name": "User mengosongkan field lokasi produk",
            "match": {
              "location": "EditProduct.user_mengosongkan_field_lokasi_produk()"
            },
            "keyword": "Then ",
            "BDD_STEP_UUID": "d505be3f-a6d4-4966-81fa-b42edda0d25e"
          },
          {
            "result": {
              "duration": 3017299600,
              "status": "passed"
            },
            "line": 15,
            "name": "Delay 3 detik",
            "match": {
              "arguments": [
                {
                  "val": "3",
                  "offset": 6
                }
              ],
              "location": "Registration.delay_detik(Integer)"
            },
            "keyword": "Given ",
            "BDD_STEP_UUID": "450217bb-935c-49da-8536-9999ab819042"
          },
          {
            "result": {
              "duration": 285900600,
              "status": "passed"
            },
            "line": 16,
            "name": "User mendapatkan alert bahwa field lokasi produk tidak boleh kosong",
            "match": {
              "location": "EditProduct.user_mendapatkan_alert_bahwa_field_lokasi_produk_tidak_boleh_kosong()"
            },
            "keyword": "Then ",
            "BDD_STEP_UUID": "aa585143-b26c-4a11-89f9-b8d97462a4a6"
          },
          {
            "result": {
              "duration": 3004701300,
              "status": "passed"
            },
            "line": 17,
            "name": "Delay 3 detik",
            "match": {
              "arguments": [
                {
                  "val": "3",
                  "offset": 6
                }
              ],
              "location": "Registration.delay_detik(Integer)"
            },
            "keyword": "Given ",
            "BDD_STEP_UUID": "ccbdedbf-ba64-4eb0-a977-6ffeb0280798"
          },
          {
            "result": {
              "duration": 278686600,
              "status": "passed"
            },
            "line": 18,
            "name": "User back ke Akun saya",
            "match": {
              "location": "EditProduct.user_back_ke_Akun_saya()"
            },
            "keyword": "Then ",
            "BDD_STEP_UUID": "6bee666e-b508-4576-8cb3-d52f40e10e01"
          },
          {
            "result": {
              "duration": 3006371100,
              "status": "passed"
            },
            "line": 19,
            "name": "Delay 3 detik",
            "match": {
              "arguments": [
                {
                  "val": "3",
                  "offset": 6
                }
              ],
              "location": "Registration.delay_detik(Integer)"
            },
            "keyword": "Given ",
            "BDD_STEP_UUID": "73629341-1cce-4890-90c5-41f1ac97c387"
          }
        ]
      },
      {
        "BDD_TESTRUN_UUID": "a4ae3b4e-864c-4aa7-a7d7-49a16f1ef9e2",
        "line": 21,
        "name": "User melakukan edit nama produk dengan valid",
        "description": "",
        "id": "edit-product;user-melakukan-edit-nama-produk-dengan-valid",
        "type": "scenario",
        "keyword": "Scenario",
        "steps": [
          {
            "result": {
              "duration": 276006400,
              "status": "passed"
            },
            "line": 22,
            "name": "User klik salah satu produk pada daftar jual",
            "match": {
              "location": "EditProduct.user_klik_salah_satu_produk_pada_daftar_jual()"
            },
            "keyword": "When ",
            "BDD_STEP_UUID": "e1d6d9fb-0cdf-47b6-94f1-a3303487e6de"
          },
          {
            "result": {
              "duration": 936111500,
              "status": "passed"
            },
            "line": 23,
            "name": "User mengosongkan field nama produk",
            "match": {
              "location": "EditProduct.user_mengosongkan_field_nama_produk()"
            },
            "keyword": "Then ",
            "BDD_STEP_UUID": "7e98e539-e829-46b0-8314-a1f441342f2b"
          },
          {
            "result": {
              "duration": 2186495500,
              "status": "passed"
            },
            "line": 24,
            "name": "User mengisi field nama produk dengan nama produk baru",
            "match": {
              "location": "EditProduct.user_mengisi_field_nama_produk_dengan_nama_produk_baru()"
            },
            "keyword": "Then ",
            "BDD_STEP_UUID": "272d5865-f533-4ce4-a187-6af6c334dee1"
          },
          {
            "result": {
              "duration": 730485900,
              "status": "passed"
            },
            "line": 25,
            "name": "User klik button Perbarui Produk",
            "match": {
              "location": "EditProduct.user_klik_button_Perbarui_Produk()"
            },
            "keyword": "Then ",
            "BDD_STEP_UUID": "afbca73e-2236-449b-a12e-0cef5be42a72"
          },
          {
            "result": {
              "duration": 3015027700,
              "status": "passed"
            },
            "line": 26,
            "name": "Delay 3 detik",
            "match": {
              "arguments": [
                {
                  "val": "3",
                  "offset": 6
                }
              ],
              "location": "Registration.delay_detik(Integer)"
            },
            "keyword": "Given ",
            "BDD_STEP_UUID": "61e591db-5381-4c8e-87e7-f9ed6744a466"
          }
        ]
      }
    ],
    "name": "Edit Product",
    "description": "",
    "id": "edit-product",
    "keyword": "Feature",
    "uri": "C:/Users/nandi/Katalon Studio/platinum-challenge-kelompok-3-final/Secondhand-App/Include/features/EditProduct.feature",
    "tags": []
  }
]