Suite/Test/Step Name,Browser,Description,Tag,Start time,End time,Duration,Status
TS - Login-Negotiation,Chrome 108.0.0.0,,,2022-12-26 14:53:17,2022-12-26 14:54:03,45.494s,PASSED
,,,,,,,
Test Cases/Cucumber/Login/TC.LOG.02.01 - Buyer,Chrome 108.0.0.0,,,2022-12-26 14:53:30,2022-12-26 14:53:45,15.715s,PASSED
"runFeatureFile(""Include/features/Valid/Login-BuyerPositiveOnly.feature"")",Chrome 108.0.0.0,,,2022-12-26 14:53:31,2022-12-26 14:53:45,13.886s,PASSED
,,,,,,,
Test Cases/Cucumber/Negotiation/TS.NEG.06,Chrome 108.0.0.0,,,2022-12-26 14:53:45,2022-12-26 14:54:03,17.414s,PASSED
"runFeatureFile(""Include/features/Buyer.feature"")",Chrome 108.0.0.0,,,2022-12-26 14:53:46,2022-12-26 14:54:03,16.318s,PASSED
