Suite/Test/Step Name,Browser,Description,Tag,Start time,End time,Duration,Status
TS - Login-Sell Product,Chrome 108.0.0.0,,,2022-12-26 14:28:46,2022-12-26 14:29:15,28.835s,PASSED
,,,,,,,
Test Cases/Cucumber/Login/TC.LOG.02.01,Chrome 108.0.0.0,,,2022-12-26 14:28:54,2022-12-26 14:29:04,9.901s,PASSED
"runFeatureFile(""Include/features/Valid/Login-PositiveOnly.feature"")",Chrome 108.0.0.0,,,2022-12-26 14:28:55,2022-12-26 14:29:04,9.203s,PASSED
,,,,,,,
Test Cases/Cucumber/Sell_Product/TS.SEL.04,Chrome 108.0.0.0,,,2022-12-26 14:29:04,2022-12-26 14:29:15,11.006s,PASSED
"runFeatureFile(""Include/features/SellProduct.feature"")",Chrome 108.0.0.0,,,2022-12-26 14:29:05,2022-12-26 14:29:15,10.343s,PASSED
