[
  {
    "line": 1,
    "elements": [
      {
        "BDD_TESTRUN_UUID": "32373bc0-5d7f-4d23-abd5-d866252f5434",
        "line": 4,
        "name": "User melakukan pencarian menggunakan keyword yang valid",
        "description": "",
        "id": "search;user-melakukan-pencarian-menggunakan-keyword-yang-valid",
        "type": "scenario",
        "keyword": "Scenario",
        "steps": [
          {
            "result": {
              "duration": 3452426600,
              "status": "passed"
            },
            "line": 5,
            "name": "User tap field Search",
            "match": {
              "location": "Search.user_tap_field_Search()"
            },
            "keyword": "When ",
            "BDD_STEP_UUID": "7b54a2da-7de4-4181-b1b2-7beedec970a6"
          },
          {
            "result": {
              "duration": 3672014200,
              "status": "passed"
            },
            "line": 6,
            "name": "User mengisi motor pada field search",
            "match": {
              "location": "Search.user_mengisi_motor_pada_field_search()"
            },
            "keyword": "Then ",
            "BDD_STEP_UUID": "e2925cd8-df1f-4cac-ae10-1bdeef83e482"
          },
          {
            "result": {
              "duration": 3279718500,
              "status": "passed"
            },
            "line": 7,
            "name": "Delay 3 detik",
            "match": {
              "arguments": [
                {
                  "val": "3",
                  "offset": 6
                }
              ],
              "location": "Registration.delay_detik(Integer)"
            },
            "keyword": "Given ",
            "BDD_STEP_UUID": "0d23ca80-533a-4e90-8fce-ef8a4b54a6fd"
          },
          {
            "result": {
              "duration": 1777038100,
              "status": "passed"
            },
            "line": 8,
            "name": "User melihat barang-barang yang memiliki keyword motor",
            "match": {
              "location": "Search.user_melihat_barang_barang_yang_memiliki_keyword_motor()"
            },
            "keyword": "Then ",
            "BDD_STEP_UUID": "889099b5-09f3-4e2e-9db6-bdaad80772fe"
          },
          {
            "result": {
              "duration": 1052282800,
              "status": "passed"
            },
            "line": 9,
            "name": "User klik button clear",
            "match": {
              "location": "Search.user_klik_button_clear()"
            },
            "keyword": "Then ",
            "BDD_STEP_UUID": "25591aef-5e4e-455d-b8de-046041374b09"
          }
        ]
      }
    ],
    "name": "Search",
    "description": "\tSebagai User, saya ingin melakukan pencarian barang pada aplikasi Second Hand Store",
    "id": "search",
    "keyword": "Feature",
    "uri": "C:/Users/nandi/Katalon Studio/platinum-challenge-kelompok-3-final/Secondhand-App/Include/features/Search.feature",
    "tags": []
  }
]