Suite/Test/Step Name,Browser,Description,Tag,Start time,End time,Duration,Status
TS - Login-Sell Product,,,,2022-12-26 18:24:35,2022-12-26 18:25:16,40.671s,PASSED
,,,,,,,
Test Cases/Cucumber/TS.SEL.04 - Sell Product,,,,2022-12-26 18:24:51,2022-12-26 18:25:16,24.780s,PASSED
"runFeatureFile(""Include/features/SellProduct.feature"")",,,,2022-12-26 18:24:52,2022-12-26 18:25:16,23.834s,PASSED
