[
  {
    "line": 1,
    "elements": [
      {
        "BDD_TESTRUN_UUID": "2baef2a5-0359-440e-8575-ea869b65f8b9",
        "line": 3,
        "name": "User ingin Keluar dari Akun",
        "description": "",
        "id": "logout;user-ingin-keluar-dari-akun",
        "type": "scenario",
        "keyword": "Scenario",
        "steps": [
          {
            "result": {
              "duration": 31346028500,
              "status": "passed"
            },
            "line": 5,
            "name": "klik buton Akun",
            "match": {
              "location": "Logout.klik_buton_Akun()"
            },
            "keyword": "When ",
            "BDD_STEP_UUID": "c80a62e9-cbd9-4200-9162-0dd96768987e"
          },
          {
            "result": {
              "duration": 798661700,
              "status": "passed"
            },
            "line": 6,
            "name": "klik Keluar",
            "match": {
              "location": "Logout.klik_Keluar()"
            },
            "keyword": "And ",
            "BDD_STEP_UUID": "0da2705a-b704-4866-b883-e379224367bf"
          },
          {
            "result": {
              "duration": 3206874900,
              "status": "passed"
            },
            "line": 7,
            "name": "verify logout",
            "match": {
              "location": "Logout.verify_logout()"
            },
            "keyword": "Then ",
            "BDD_STEP_UUID": "c7e461ff-7fc2-4805-9635-3817febaf16e"
          }
        ]
      }
    ],
    "name": "Logout",
    "description": "",
    "id": "logout",
    "keyword": "Feature",
    "uri": "C:/Users/nandi/Katalon Studio/platinum-challenge-kelompok-3-final/Secondhand-App/Include/features/Logout.feature",
    "tags": []
  }
]